<resources>
    <string name="app_name">Project Apollo Mobile Application </string>

    <!-- Strings related to login -->
    <string name="prompt_email">Email</string>
    <string name="prompt_password">Password </string>
    <string name="action_sign_in">Sign in</string>
    <string name="action_sign_in_short">Sign in</string>
    <string name="error_invalid_email">Invalid credentials</string>
    <string name="error_invalid_password">This password is too short</string>
    <string name="error_incorrect_password">Invalid credentials</string>
    <string name="error_field_required">This field is required</string>
    <string name="permission_rationale">"Contacts permissions are needed for providing email
        completions."
    </string>
    <string name="title_activity_dashboard">Dashboard</string>

    <string name="navigation_drawer_open">Open navigation drawer</string>
    <string name="navigation_drawer_close">Close navigation drawer</string>

    <string name="action_settings">Settings</string>
    <string name="title_activity_products">Products</string>
    <string name="large_text">
       {
    "data": [
        {
            "id": 25,
            "name": "Abshire-Langosh",
            "telephone": "747.336.3388",
            "email": "maggio.kane@gmail.com",
            "address": "576 Hilma Spurs Apt. 450",
            "address_2": "Apt. 455",
            "city": "West Hilmachester",
            "province": "Washington",
            "country": "Christmas Island"
        },
        {
            "id": 149,
            "name": "Ankunding Inc",
            "telephone": "+1 (467) 204-4650",
            "email": "halvorson.lisette@carroll.com",
            "address": "41768 Abner Mission Apt. 639",
            "address_2": "Suite 630",
            "city": "North D'angelo",
            "province": "Connecticut",
            "country": "Equatorial Guinea"
        },
        {
            "id": 132,
            "name": "Barrows-Krajcik",
            "telephone": "+1.421.884.6537",
            "email": "bashirian.lafayette@russel.com",
            "address": "1021 Vella Ridges",
            "address_2": "Apt. 267",
            "city": "Schimmelton",
            "province": "South Carolina",
            "country": "Central African Republic"
        },
        {
            "id": 182,
            "name": "Bartell and Sons",
            "telephone": "+1 (372) 773-9543",
            "email": "dnicolas@yahoo.com",
            "address": "5017 Runte Extensions Suite 530",
            "address_2": "Suite 298",
            "city": "South Camronhaven",
            "province": "North Dakota",
            "country": "Grenada"
        },
        {
            "id": 230,
            "name": "Bartell-Hansen",
            "telephone": "472-244-0643",
            "email": "adavis@hotmail.com",
            "address": "50386 Golda Bypass",
            "address_2": "Suite 787",
            "city": "South Dinoland",
            "province": "Wisconsin",
            "country": "Paraguay"
        },
        {
            "id": 130,
            "name": "Barton, Wilderman and Wiegand",
            "telephone": "+1-748-601-0518",
            "email": "dbergstrom@rowe.net",
            "address": "184 Demetris Junction",
            "address_2": "Apt. 212",
            "city": "South Cedrick",
            "province": "Colorado",
            "country": "Greece"
        },
        {
            "id": 39,
            "name": "Batz Group",
            "telephone": "+1 (760) 907-4009",
            "email": "alysha10@hotmail.com",
            "address": "6899 Fredy Stravenue",
            "address_2": "Apt. 625",
            "city": "East Bridgette",
            "province": "Pennsylvania",
            "country": "Jamaica"
        },
        {
            "id": 79,
            "name": "Baumbach-Rogahn",
            "telephone": "1-302-667-4036 x53340",
            "email": "tessie43@bailey.biz",
            "address": "94558 Lubowitz Ports",
            "address_2": "Apt. 316",
            "city": "Vedafort",
            "province": "Iowa",
            "country": "Trinidad and Tobago"
        },
        {
            "id": 119,
            "name": "Bayer Inc",
            "telephone": "+18323386999",
            "email": "cole.nico@lang.com",
            "address": "397 Hayes Flat",
            "address_2": "Suite 199",
            "city": "Allisonview",
            "province": "Indiana",
            "country": "Vanuatu"
        },
        {
            "id": 173,
            "name": "Bednar, Klein and Harber",
            "telephone": "994-862-7171",
            "email": "hharber@tremblay.net",
            "address": "4094 Kory Brooks",
            "address_2": "Apt. 140",
            "city": "South Jordon",
            "province": "Wyoming",
            "country": "Tajikistan"
        },
        {
            "id": 234,
            "name": "Beier, Tremblay and Kunde",
            "telephone": "616-272-8831 x75575",
            "email": "lsauer@johns.com",
            "address": "7417 Mallie Brooks Apt. 234",
            "address_2": "Apt. 664",
            "city": "Wiegandport",
            "province": "Alaska",
            "country": "Saint Vincent and the Grenadines"
        },
        {
            "id": 134,
            "name": "Bernhard, Hessel and Gleichner",
            "telephone": "+1-737-603-9740",
            "email": "fbailey@hotmail.com",
            "address": "20112 Malachi Route",
            "address_2": "Apt. 481",
            "city": "Hassiechester",
            "province": "Wisconsin",
            "country": "Turkmenistan"
        },
        {
            "id": 222,
            "name": "Blanda, Corkery and Frami",
            "telephone": "(886) 774-9353",
            "email": "alverta93@gmail.com",
            "address": "29883 Kerluke Landing",
            "address_2": "Suite 877",
            "city": "Wisokybury",
            "province": "Vermont",
            "country": "Liberia"
        },
        {
            "id": 98,
            "name": "Bogan, Turner and O'Hara",
            "telephone": "798.300.1845 x157",
            "email": "jerad53@rowe.com",
            "address": "1265 Runolfsdottir Stream",
            "address_2": "Suite 872",
            "city": "East Gerdafort",
            "province": "Delaware",
            "country": "Korea"
        },
        {
            "id": 99,
            "name": "Bosco-Runolfsson",
            "telephone": "647.768.2578 x669",
            "email": "oemard@gmail.com",
            "address": "689 Keagan Spring Apt. 178",
            "address_2": "Suite 807",
            "city": "North Jordy",
            "province": "Maine",
            "country": "Nicaragua"
        },
        {
            "id": 23,
            "name": "Boyer, Kertzmann and Hermann",
            "telephone": "+1 (417) 654-2414",
            "email": "breanne03@gmail.com",
            "address": "5951 Ford Terrace",
            "address_2": "Apt. 355",
            "city": "Bashirianbury",
            "province": "Florida",
            "country": "Argentina"
        },
        {
            "id": 46,
            "name": "Breitenberg, Klein and O'Reilly",
            "telephone": "+1.485.788.3023",
            "email": "ehermann@hotmail.com",
            "address": "49150 Fannie Hills Apt. 734",
            "address_2": "Apt. 501",
            "city": "North Juwanburgh",
            "province": "North Carolina",
            "country": "Saint Martin"
        },
        {
            "id": 91,
            "name": "Brown PLC",
            "telephone": "791-995-7986",
            "email": "grodriguez@medhurst.com",
            "address": "60551 Ava Well",
            "address_2": "Apt. 612",
            "city": "North Aylachester",
            "province": "New York",
            "country": "Greenland"
        },
        {
            "id": 187,
            "name": "Carroll-Borer",
            "telephone": "615.928.2021",
            "email": "hudson.anastasia@dicki.com",
            "address": "4091 Alek Estates Apt. 586",
            "address_2": "Apt. 900",
            "city": "Koelpinville",
            "province": "Alaska",
            "country": "Jordan"
        },
        {
            "id": 129,
            "name": "Cartwright Group",
            "telephone": "853-744-3642",
            "email": "kuphal.marge@gmail.com",
            "address": "332 Wisozk Way Suite 219",
            "address_2": "Apt. 640",
            "city": "East Hayleyport",
            "province": "Georgia",
            "country": "New Zealand"
        },
        {
            "id": 231,
            "name": "Cartwright LLC",
            "telephone": "570.224.2899",
            "email": "jerel.hettinger@gmail.com",
            "address": "5829 Terry Points",
            "address_2": "Apt. 343",
            "city": "Monserratmouth",
            "province": "Maryland",
            "country": "Botswana"
        },
        {
            "id": 179,
            "name": "Champlin LLC",
            "telephone": "742.776.1985 x063",
            "email": "mcclure.narciso@rippin.com",
            "address": "62455 Devon Cliff",
            "address_2": "Suite 520",
            "city": "Port Grayceshire",
            "province": "Colorado",
            "country": "Macao"
        },
        {
            "id": 4,
            "name": "Cole PLC",
            "telephone": "892.624.4344",
            "email": "zroberts@leuschke.com",
            "address": "6426 Clotilde Stravenue Suite 692",
            "address_2": "Apt. 380",
            "city": "Swiftmouth",
            "province": "Maryland",
            "country": "Mexico"
        },
        {
            "id": 26,
            "name": "Collins-Hamill",
            "telephone": "446-517-8912",
            "email": "goldner.eleanora@okeefe.org",
            "address": "2023 Kiana Island Apt. 065",
            "address_2": "Suite 600",
            "city": "New Bradford",
            "province": "Louisiana",
            "country": "South Africa"
        },
        {
            "id": 56,
            "name": "Connelly-Wiza",
            "telephone": "341-580-9924",
            "email": "wjacobson@gmail.com",
            "address": "40325 Macejkovic Estates",
            "address_2": "Suite 554",
            "city": "South Rickietown",
            "province": "Louisiana",
            "country": "United States of America"
        }
    ],
    "meta": {
        "pagination": {
            "total": 250,
            "count": 25,
            "per_page": 25,
            "current_page": 1,
            "total_pages": 10,
            "links": {
                "next": "https://apollo.lomejo.co.za/api/customer?page=2"
            }
        }
    }
}
    </string>
    <string name="title_activity_suppliers">Suppliers</string>
    <string name="title_activity_customers">Customers</string>
    <string name="title_activity_example_list">ExampleList</string>
    <string name="title_activity_test">Test</string>
</resources>
